exercise-11
…
Categorical variables: order, family, genus, species. Numeric variables: mass(g), gestation(mo), newborn(g), weaning(mo), wean mass(g), AFR(mo), max. life(mo), litter size, litters/year, refs.

Step 1: Replace all values of -999 (the authors’ code for missing data) with NA.

library(naniar)

Attaching package: 'naniar'

The following object is masked from 'package:skimr':

    n_complete

replace_with_na_all(data = d, condition = ~.x == -999)

# A tibble: 1,440 × 14
   order        family      Genus species `mass(g)` `gestation(mo)` `newborn(g)`
   <chr>        <chr>       <chr> <chr>       <dbl>           <dbl>        <dbl>
 1 Artiodactyla Antilocapr… Anti… americ…    45375             8.13        3246.
 2 Artiodactyla Bovidae     Addax nasoma…   182375             9.39        5480 
 3 Artiodactyla Bovidae     Aepy… melamp…    41480             6.35        5093 
 4 Artiodactyla Bovidae     Alce… busela…   150000             7.9        10167.
 5 Artiodactyla Bovidae     Ammo… clarkei    28500             6.8           NA 
 6 Artiodactyla Bovidae     Ammo… lervia     55500             5.08        3810 
 7 Artiodactyla Bovidae     Anti… marsup…    30000             5.72        3910 
 8 Artiodactyla Bovidae     Anti… cervic…    37500             5.5         3846 
 9 Artiodactyla Bovidae     Bison bison     497667.            8.93       20000 
10 Artiodactyla Bovidae     Bison bonasus   500000             9.14       23000.
# ℹ 1,430 more rows
# ℹ 7 more variables: `weaning(mo)` <dbl>, `wean mass(g)` <dbl>,
#   `AFR(mo)` <dbl>, `max. life(mo)` <dbl>, `litter size` <dbl>,
#   `litters/year` <dbl>, refs <dbl>
…
